[
  {
    "uuid": "11bceda9-4f52-3cea-9fc5-5e78e2993c99",
    "name": "Gonza",
    "level": 4,
    "bypassesPlayerLimit": false
  },
  {
    "uuid": "eaa2d223-8990-35ad-837a-b25d63d3370f",
    "name": "Juampas",
    "level": 4,
    "bypassesPlayerLimit": false
  },
  {
    "uuid": "ebfd8348-a4a8-3dae-8c11-3b14f0b55f28",
    "name": "zennko",
    "level": 4,
    "bypassesPlayerLimit": false
  },
  {
    "uuid": "0de3b28b-88ec-3174-9b77-bd2d212aae93",
    "name": "Gonza2k01",
    "level": 4,
    "bypassesPlayerLimit": false
  },
  {
    "uuid": "4513e01b-c8ee-3c6b-872c-f89dc662c907",
    "name": "Revers",
    "level": 4,
    "bypassesPlayerLimit": false
  },
  {
    "uuid": "0e6f15d2-2e6b-30a2-83c5-d9fda3e7d015",
    "name": "Abbas",
    "level": 4,
    "bypassesPlayerLimit": false
  },
  {
    "uuid": "1c8c9212-8ebf-3260-a2a3-ef454710bed1",
    "name": "Zenkko",
    "level": 4,
    "bypassesPlayerLimit": false
  },
  {
    "uuid": "62f14904-3769-30a9-85f6-11c2a5945aef",
    "name": "topo",
    "level": 4,
    "bypassesPlayerLimit": false
  }
]